Celine Mini Project – © Celine Al Miari
…
The same Tidying process will be done for Taylor Swift.

taylor_clean <- Taylor|>
  mutate(line = row_number(),
        Lyric_clean = str_to_lower(Lyric), #lower case
         lyrics = str_remove_all(Lyric_clean, "[^a-z\\s]"),#rem all no letter/space 
lyrics = str_squish(lyrics)) |> #remove any removed space
  filter(Album != "") |> #not named album removed
  unnest_tokens(word, lyrics)  |> #tokenizing
  anti_join(Billie_stop, by = "word")|> #snowball stopwords
   anti_join(Billie_smart, by = "word") #smart stopwords

To explore romantic themes in the lyrics regular expressions will be used to detect words such as “love”, “heart”, and “baby” for Taylor

# A tibble: 48 × 32
   Album  baby exlovers heart heartbeats heartbreakers hearts  love loves exlove
   <chr> <int>    <int> <int>      <int>         <int>  <int> <int> <int>  <int>
 1 "Unr…    77        0    42          0             0      3   125    13      0
 2 "198…    32        6     3          1             3      1    77     2      0
 3 "Lov…    29        0     4          0             0      1    44     0      0
 4 "Red…     2        0     5          0             0      3    31     2      0
 5 "rep…    33        0    15          0             0      2    21     4      2
 6 "Tay…    35        2     1          0             2      1    29     2      1
 7 "Vol…    15        0     9          0             0      0    19     7      0
 8 "Tay…     7        0    11          0             0      0    16     0      0
 9 "Spe…     3        0     2          0             0      0    24     0      0
10 "198…    13        1     0          0             0      0    23     0      1
# ℹ 38 more rows
# ℹ 22 more variables: heartbreak <int>, lighthearted <int>, loved <int>,
#   heartbeat <int>, lover <int>, gloves <int>, heartbreaks <int>,
#   lovely <int>, lovestruck <int>, heartdelicate <int>, sweetheart <int>,
#   heartstrings <int>, lovebirds <int>, lovers <int>, heartache <int>,
#   babylon <int>, clover <int>, beloved <int>, heartstopping <int>,
#   babys <int>, getlovequickschemes <int>, total <dbl>

Tibble 3 shows the frequency of love-related words such as “love,” “baby,” and “heart” in Taylor Swift’s lyrics by album. Each row represents an album, while the columns display counts of variations of these words and a total for each album. The album 1989 has the highest total with 85 love-related words, while Speak Now (Deluxe) has the lowest of 10. Overall, the results show that love-related words appear frequently across Taylor Swift’s albums, highlighting the strong presence of love themes in her lyrics

Time theme in the lyrics will be discovered as well

# A tibble: 49 × 43
   Album      `break` breakdown crying crystal forever forevermore heartbreakers
   <chr>        <int>     <int>  <int>   <int>   <int>       <int>         <int>
 1 "Red (Del…      11         9      0       0       3           0             0
 2 "Unreleas…      10         0      8       0       7           0             0
 3 "Taylor S…      15         0      2       0       9           1             2
 4 "folklore…       1         0      2       0       3           0             0
 5 "folklore"       1         0      2       0       3           0             0
 6 "reputati…       7         0      0       0       4           1             0
 7 "Speak No…       6         3      1       0      12           0             0
 8 "Speak No…       6         3      1       0      13           0             0
 9 "2004-200…       0         0      0       0       3           0             0
10 "Fearless"       3         0      2       0       8           0             0
# ℹ 39 more rows
# ℹ 35 more variables: past <int>, remember <int>, sad <int>, time <int>,
#   times <int>, cry <int>, heartbreak <int>, memory <int>, breaks <int>,
#   breaking <int>, breakable <int>, breakfast <int>, heartbreaks <int>,
#   remembering <int>, saddest <int>, parttime <int>, pastel <int>,
#   pastry <int>, remembered <int>, pesadelos <int>, sentimento <int>,
#   pasadena <int>, breakup <int>, anytime <int>, memoryll <int>, …
…
